CardNames,Giant`s Blood,Giant's Blood
CardNames,Idalia,"Idalia, Prophet of Guadalajara (Group 2)"
CardNames,Wake with Evening`s Freshness,Wake with Evening's Freshness
CardNames,Carlton Van Wyk (Hunter),Carlton Van Wyk
CardNames,Eagle`s Sight,Eagle's Sight
CardNames,Loki`s Gift,Loki's Gift
CardNames,Bum`s Rush,Bum's Rush
CardNames,Rotschreck,Rötschreck
CardNames,Zayyat,"Zayyat, The Sandstorm (Group 3)"
CardNames,My Enemy`s Enemy,My Enemy's Enemy
CardNames,Pentex Subversion,Pentex™ Subversion
CardNames,Pentex(TM) Subversion,Pentex™ Subversion
CardNames,Pentex(TM) Loves You!,Pentex™ Loves You!
CardNames,Pentex(TM) Loves You,Pentex™ Loves You!
CardNames,Veles` Hunt,Veles' Hunt
CardNames,Zillah`s Valley,Zillah's Valley
CardNames,Anastaszdi Zagreb,Anastasz di Zagreb (Group 3)
CardNames,Ankara Citadel,"The Ankara Citadel, Turkey"
CardNames,Pier 13,"Pier 13, Port of Baltimore"
CardNames,Ana Rita Montana,Ana Rita Montaña (Group 3)
CardNames,Celeste Lamontagne,Céleste Lamontagne (Group 4)
CardNames,Francois Villon,François Villon (Group 2)
CardNames,Volker,"Volker, The Puppet Prince (Group 2)"
CardNames,Zoe,Zöe (Group 2)
CardNames,Ambrosio Luis Moncada,"Ambrosio Luis Monçada, Plenipotentiary (Group 2)"
CardNames,"Ambrosio Luis Moncada, Plenipotentiary","Ambrosio Luis Monçada, Plenipotentiary (Group 2)"
CardNames,"Francois ""Warden"" Loehr","François ""Warden"" Loehr (Group 4)"
CardNames,Francois 'Warder' Loehr ,"François ""Warden"" Loehr (Group 4)"
CardNames,Ondine Boudicca Sinclair,"Ondine ""Boudicca"" Sinclair (Group 5)"
CardNames,Lazar Dobrescu,Lázár Dobrescu (Group 2)
CardNames,Anton de Concepcion,Antón de Concepción (Group 4)
CardNames,Bang Nakh -- Tiger's Claws,Bang Nakh — Tiger's Claws
CardNames,Agi,Ági (Group 6)
CardNames,Sebastian Goulet,Sébastien Goulet (Group 3)
CardNames,Sébastian Goulet,Sébastien Goulet (Group 3)
CardNames,Sébastian Goulet (Advanced),Sébastien Goulet (Group 3) (Advanced)
CardNames,Sebastian Goulet (Adv),Sébastien Goulet (Group 3) (Advanced)
CardNames,"Sacre Cour Cathedral, France","Sacré-Cœur Cathedral, France"
CardNames,Dia de los Muertos,Día de los Muertos
CardNames,Alabastrom,Alabástrom (Group 6)
CardNames,Carolina Valez,Carolina Vález (Group 5)
CardNames,"Talley, the Hound","Talley, The Hound (Group 2)"
CardNames,"Adri, the Seeker","Adri, The Seeker (Group 6)"
CardNames,"Horde, The",The Horde (Group 6)
CardNames,"Capuchin, The",The Capuchin (Group 5)
CardNames,"Medic, The",The Medic (Group 5)
CardNames,"Rose, The",The Rose (Group 3)
CardTypes,Equipment,Equipment
CardTypes,Action,Action
CardTypes,Vampire,Vampire
CardTypes,Reaction,Reaction
CardTypes,Combat,Combat
CardTypes,Power,Power
CardTypes,Master,Master
CardTypes,Event,Event
CardTypes,Ally,Ally
CardTypes,Action Modifier,Action Modifier
CardTypes,Political Action,Political Action
CardTypes,Imbued,Imbued
CardTypes,Retainer,Retainer
CardTypes,Reflex,Reflex
CardTypes,Conviction,Conviction
Clans,Brujah,Brujah
Clans,Malk,Malkavian
Clans,Nos,Nosferatu
Clans,Tor,Toreador
Clans,Tre,Tremere
Clans,Ven,Ventrue
Clans,Caitiff,Caitiff
Clans,Abom,Abomination
Clans,Gangrel,Gangrel
Clans,Assa,Banu Haqim
Clans,Assamite,Banu Haqim
Clans,Follower of Set,Ministry
Clans,Minister,Ministry
Clans,Set,Ministry
Clans,FoS,Ministry
Clans,Giov,Giovanni
Clans,Ravnos,Ravnos
Clans,Baali,Baali
Clans,DoC,Daughter of Cacophony
Clans,Garg,Gargoyle
Clans,Naga,Nagaraja
Clans,Salu,Salubri
Clans,Sam,Samedi
Clans,TBruj,True Brujah
Clans,Lasom,Lasombra
Clans,Tz,Tzimisce
Clans,!Brujah,Brujah antitribu
Clans,!Gangrel,Gangrel antitribu
Clans,!Malk,Malkavian antitribu
Clans,!Nos,Nosferatu antitribu
Clans,!Tor,Toreador antitribu
Clans,!Tre,Tremere antitribu
Clans,!Ven,Ventrue antitribu
Clans,Pan,Pander
Clans,Ahrimanes,Ahrimane
Clans,Blood Brothers,Blood Brother
Clans,BB,Blood Brother
Clans,HoS,Harbinger of Skulls
Clans,Kias,Kiasyd
Clans,!Salu,Salubri antitribu
Clans,Aku,Akunanse
Clans,Guru,Guruhi
Clans,Ish,Ishtarri
Clans,Ose,Osebo
Creeds,Avenger,Avenger
Creeds,Defender,Defender
Creeds,Innocent,Innocent
Creeds,Judge,Judge
Creeds,Martyr,Martyr
Creeds,Redeemer,Redeemer
Creeds,Visionary,Visionary
Disciplines,Abombwe,abo
Disciplines,ABO,abo
Disciplines,Animalism,ani
Disciplines,ANI,ani
Disciplines,Auspex,aus
Disciplines,AUS,aus
Disciplines,Celerity,cel
Disciplines,CEL,cel
Disciplines,Chimerstry,chi
Disciplines,CHI,chi
Disciplines,Daimoinon,dai
Disciplines,DAI,dai
Disciplines,Dementation,dem
Disciplines,DEM,dem
Disciplines,Dominate,dom
Disciplines,DOM,dom
Disciplines,Flight,fli
Disciplines,FLI,fli
Disciplines,Fortitude,for
Disciplines,FOR,for
Disciplines,Maleficia,mal
Disciplines,MAL,mal
Disciplines,Melpominee,mel
Disciplines,MEL,mel
Disciplines,Mytherceria,myt
Disciplines,MYT,myt
Disciplines,Necromancy,nec
Disciplines,NEC,nec
Disciplines,Obeah,obe
Disciplines,OBE,obe
Disciplines,Obfuscate,obf
Disciplines,OBF,obf
Disciplines,Oblivion,obl
Disciplines,OBL,obl
Disciplines,Obtenebration,obt
Disciplines,OBT,obt
Disciplines,Potence,pot
Disciplines,POT,pot
Disciplines,Presence,pre
Disciplines,PRE,pre
Disciplines,Protean,pro
Disciplines,PRO,pro
Disciplines,Quietus,qui
Disciplines,QUI,qui
Disciplines,Sanguinus,san
Disciplines,SAN,san
Disciplines,Serpentis,ser
Disciplines,SER,ser
Disciplines,Spiritus,spi
Disciplines,SPI,spi
Disciplines,Striga,str
Disciplines,STR,str
Disciplines,Temporis,tem
Disciplines,TEM,tem
Disciplines,Thanatosis,thn
Disciplines,THN,thn
Disciplines,Blood Sorcery,tha
Disciplines,Thaumaturgy,tha
Disciplines,THA,tha
Disciplines,Valeren,val
Disciplines,VAL,val
Disciplines,Vicissitude,vic
Disciplines,VIC,vic
Disciplines,Visceratika,vis
Disciplines,VIS,vis
Expansions,ReversePrefix:Promo-,Promo
Expansions,Jyhad,Jyhad
Expansions,VTES,VTES
Expansions,DS,Dark Sovereigns
Expansions,AH,Ancient Hearts
Expansions,Sabbat,Sabbat
Expansions,SW,Sabbat Wars
Expansions,FN,Final Nights
Expansions,BL,Bloodlines
Expansions,CE,Camarilla Edition
Expansions,Anarchs,Anarchs
Expansions,White Wolf 2003 Demo,White Wolf 2003 Demo
Expansions,BH,Black Hand
Expansions,Blackhand,Black Hand
Expansions,Gehenna,Gehenna
Expansions,Tenth,Tenth Anniversary
Expansions,KMW,Kindred Most Wanted
Expansions,LoB,Legacy of Blood
Expansions,NoR,Nights of Reckoning
Expansions,Third,Third Edition
Expansions,SoC,Sword of Caine
Expansions,LotN,Lords of the Night
Expansions,BSC,Blood Shadowed Court
Expansions,TR,Twilight Rebellion
Expansions,KoT,Keepers of Tradition
Expansions,EK,Ebony Kingdom
Expansions,HttB,Heirs to the Blood
Expansions,AU,Anarchs Unbound
Expansions,TU,The Unaligned
Expansions,DM,Danse Macabre
Expansions,Anthology,Anthology
Expansions,Anarchs and Alastors Storyline,Anarchs and Alastors Storyline
Expansions,Promo-20080810,Anarchs and Alastors Storyline
Expansions,Ragnarok - the Final Battle (EC 2013),Ragnarok - the Final Battle (EC 2013)
Expansions,VEKN 2014 Rise of the Nictuku,VEKN 2014 Rise of the Nictuku
Expansions,VEKN 2015 The Red Sign,VEKN 2015 The Red Sign
Expansions,VEKN 2014 The Returned,VEKN 2014 The Returned
Expansions,Nergal Storyline,Nergal Storyline
Expansions,VEKN 2014 Children of Osiris,VEKN 2014 Children of Osiris
Expansions,The Battle for Budapest (EC 2012),The Battle for Budapest (EC 2012)
Expansions,Cultist Storyline,Cultist Storyline
Expansions,March of the War Ghouls (NAC 2012),March of the War Ghouls (NAC 2012)
Expansions,Eden's Legacy Storyline,Eden's Legacy Storyline
Expansions,LK,Lost Kindred
Expansions,Black Chantry Reprint,Black Chantry
Expansions,HB2018,Humble Bundle 2018 Cards
Expansions,Promo-20181004,Humble Bundle 2018 Cards
Expansions,SP,Black Chantry
Expansions,Sabbat Preconstructed,Black Chantry
Expansions,AnthologyI,Anthology I Reprint Set
Expansions,25th,Twenty-Fifth Anniversary
Expansions,FB,First Blood
Expansions,POD,Black Chantry
Expansions,Promo-20190804,Promo-20190408
Expansions,Promo-20201123,Promo-20191123
Expansions,Promo-20100925,Promo-20080203
Expansions,Promo-20240420,Promo-20240229
Expansions,V5,Fifth Edition
Expansions,Anarchs Unbound (Kickstarter Edition),Anarchs Unbound (Kickstarter Edition)
Expansions,The Unaligned (Kickstarter Edition),The Unaligned (Kickstarter Edition)
Expansions,Danse Macabre (Kickstarter Edition),Danse Macabre (Kickstarter Edition)
Expansions,V5A,Fifth Edition: Anarch
Expansions,Fifth Edition: Anarchs,Fifth Edition: Anarch
Expansions,V5C,Fifth Edition: Companion
Expansions,NB,New Blood
Expansions,NB2,New Blood
Expansions,FoL,Fall of London
Expansions,SoB,Shadows of Berlin
Expansions,EoG,Black Chantry
Expansions,Echoes of Gehenna,Black Chantry
Expansions,30th,Thirtieth Anniversary
Expansions,draft2024,Black Chantry 2024 Draft Set
Rarities,Prefix:P,Precon
Rarities,C,Common
Rarities,C1,Common
Rarities,C2,Common
Rarities,C3,Common
Rarities,C½,Common
Rarities,P,Precon
Rarities,V,Vampire
Rarities,V1,Vampire
Rarities,V2,Vampire
Rarities,V3,Vampire
Rarities,U,Uncommon
Rarities,U1,Uncommon
Rarities,U2,Uncommon
Rarities,U3,Uncommon
Rarities,U5,Uncommon
Rarities,R,Rare
Rarities,R1,Rare
Rarities,R2,Rare
Rarities,R3,Rare
Rarities,NA,Not Applicable
Rarities,BSC,BSC
Rarities,X,BSC
Rarities,A,Fixed
Rarities,B,Fixed
Rarities,1,Fixed
Rarities,2,Fixed
Rarities,3,Fixed
Rarities,4,Fixed
Rarities,5,Fixed
Rarities,6,Fixed
Rarities,7,Fixed
Rarities,8,Fixed
Rarities,A1,Fixed
Rarities,B1,Fixed
Rarities,A2,Fixed
Rarities,B2,Fixed
Rarities,A3,Fixed
Rarities,B3,Fixed
Rarities,A4,Fixed
Rarities,B4,Fixed
Rarities,A5,Fixed
Rarities,B5,Fixed
Rarities,A6,Fixed
Rarities,B6,Fixed
Rarities,LARP1,Fixed
Rarities,HB2,Fixed
Rarities,Rules,Rules
Rarities,Storyline,Storyline
Rarities,Demo,Demo
Rarities,DoF1,Precon
Rarities,DoF2,Precon
Rarities,DoF3,Precon
Rarities,DoF4,Precon
Rarities,DoF5,Precon
Rarities,DoF6,Precon
Rarities,LB1,Precon
Rarities,LB2,Precon
Rarities,LB3,Precon
Rarities,LB4,Precon
Rarities,LB6,Precon
Rarities,LB7,Precon
Rarities,LB9,Precon
Rarities,PoS1,Precon
Rarities,PoS2,Precon
Rarities,PoS3,Precon
Rarities,PoS4,Precon
Rarities,PoS6,Precon
Rarities,PwN1,Precon
Rarities,PwN2,Precon
Rarities,PwN3,Precon
Rarities,PwN5,Precon
Rarities,PwN6,Precon
Rarities,PwN8,Precon
Rarities,S,Print on Demand Singles
Rarities,DTC,Print on Demand Singles
Rarities,SKB1,Demo
Rarities,SKB2,Demo
Rarities,SKB3,Demo
Rarities,SKB4,Demo
Rarities,SKM1,Demo
Rarities,SKM2,Demo
Rarities,SKM3,Demo
Rarities,SKM4,Demo
Rarities,SKTr1,Demo
Rarities,SKTr2,Demo
Rarities,SKTr3,Demo
Rarities,SKTr4,Demo
Rarities,SKTz1,Demo
Rarities,SKTz2,Demo
Rarities,SKTz3,Demo
Rarities,SKTz4,Demo
Sects,Camarilla,Camarilla
Sects,Sabbat,Sabbat
Sects,Independent,Independent
Sects,Laibon,Laibon
Sects,Anarch,Anarch
Virtues,Defense,def
Virtues,Innocence,inn
Virtues,Judgment,jud
Virtues,Judgement,jud
Virtues,Martyrdom,mar
Virtues,Redemption,red
Virtues,Vengeance,ven
Virtues,Vision,viz
Virtues,vis,viz
